mc20_13TeV.700843.Sh_2214_Wqq_ptW_200_ECMS.deriv.DAOD_LLJ1.e8536_s3681_r13167_p6453
mc20_13TeV.700843.Sh_2214_Wqq_ptW_200_ECMS.deriv.DAOD_LLJ1.e8536_s3681_r13144_p6453
mc20_13TeV.700843.Sh_2214_Wqq_ptW_200_ECMS.deriv.DAOD_LLJ1.e8536_s3681_r13145_p6453
mc20_13TeV.700849.Sh_2214_Zqq_ptZ_200_ECMS.deriv.DAOD_LLJ1.e8536_s3681_r13167_p6453
mc20_13TeV.700849.Sh_2214_Zqq_ptZ_200_ECMS.deriv.DAOD_LLJ1.e8536_s3681_r13144_p6453
mc20_13TeV.700849.Sh_2214_Zqq_ptZ_200_ECMS.deriv.DAOD_LLJ1.e8536_s3681_r13145_p6453
mc20_13TeV.700855.Sh_2214_Zbb_ptZ_200_ECMS.deriv.DAOD_LLJ1.e8536_s3681_r13167_p6453
mc20_13TeV.700855.Sh_2214_Zbb_ptZ_200_ECMS.deriv.DAOD_LLJ1.e8536_s3681_r13144_p6453
mc20_13TeV.700855.Sh_2214_Zbb_ptZ_200_ECMS.deriv.DAOD_LLJ1.e8536_s3681_r13145_p6453
