mc20_13TeV:mc20_13TeV.410156.aMcAtNloPythia8EvtGen_MEN30NLO_A14N23LO_ttZnunu.deriv.DAOD_PHYS.e5070_s3681_r13144_p6026
mc20_13TeV:mc20_13TeV.410156.aMcAtNloPythia8EvtGen_MEN30NLO_A14N23LO_ttZnunu.deriv.DAOD_PHYS.e5070_s3681_r13145_p6026
mc20_13TeV:mc20_13TeV.410156.aMcAtNloPythia8EvtGen_MEN30NLO_A14N23LO_ttZnunu.deriv.DAOD_PHYS.e5070_s3681_r13167_p6026
mc20_13TeV:mc20_13TeV.410157.aMcAtNloPythia8EvtGen_MEN30NLO_A14N23LO_ttZqq.deriv.DAOD_PHYS.e5070_s3681_r13144_p6026
mc20_13TeV:mc20_13TeV.410157.aMcAtNloPythia8EvtGen_MEN30NLO_A14N23LO_ttZqq.deriv.DAOD_PHYS.e5070_s3681_r13145_p6026
mc20_13TeV:mc20_13TeV.410157.aMcAtNloPythia8EvtGen_MEN30NLO_A14N23LO_ttZqq.deriv.DAOD_PHYS.e5070_s3681_r13167_p6026
mc20_13TeV:mc20_13TeV.410218.aMcAtNloPythia8EvtGen_MEN30NLO_A14N23LO_ttee.deriv.DAOD_PHYS.e5070_s3681_r13144_p6026
mc20_13TeV:mc20_13TeV.410218.aMcAtNloPythia8EvtGen_MEN30NLO_A14N23LO_ttee.deriv.DAOD_PHYS.e5070_s3681_r13145_p6026
mc20_13TeV:mc20_13TeV.410218.aMcAtNloPythia8EvtGen_MEN30NLO_A14N23LO_ttee.deriv.DAOD_PHYS.e5070_s3681_r13167_p6026
mc20_13TeV:mc20_13TeV.410219.aMcAtNloPythia8EvtGen_MEN30NLO_A14N23LO_ttmumu.deriv.DAOD_PHYS.e5070_s3681_r13144_p6026
mc20_13TeV:mc20_13TeV.410219.aMcAtNloPythia8EvtGen_MEN30NLO_A14N23LO_ttmumu.deriv.DAOD_PHYS.e5070_s3681_r13145_p6026
mc20_13TeV:mc20_13TeV.410219.aMcAtNloPythia8EvtGen_MEN30NLO_A14N23LO_ttmumu.deriv.DAOD_PHYS.e5070_s3681_r13167_p6026
mc20_13TeV:mc20_13TeV.410220.aMcAtNloPythia8EvtGen_MEN30NLO_A14N23LO_tttautau.deriv.DAOD_PHYS.e5070_s3681_r13144_p6026
mc20_13TeV:mc20_13TeV.410220.aMcAtNloPythia8EvtGen_MEN30NLO_A14N23LO_tttautau.deriv.DAOD_PHYS.e5070_s3681_r13145_p6026
mc20_13TeV:mc20_13TeV.410220.aMcAtNloPythia8EvtGen_MEN30NLO_A14N23LO_tttautau.deriv.DAOD_PHYS.e5070_s3681_r13167_p6026
