#mc20_13TeV.364287.Sherpa_222_NNPDF30NNLO_llvvjj_ss_EW6.deriv.DAOD_PHYS.e6055_s3681_r13144_p6026
#mc20_13TeV.364287.Sherpa_222_NNPDF30NNLO_llvvjj_ss_EW6.deriv.DAOD_PHYS.e6055_s3681_r13145_p6026
mc20_13TeV.364287.Sherpa_222_NNPDF30NNLO_llvvjj_ss_EW6.deriv.DAOD_PHYS.e6055_s3681_r13167_p6026

#mc20_13TeV.364286.Sherpa_222_NNPDF30NNLO_llvvjj_ss_EW4.deriv.DAOD_PHYS.e6055_s3681_r13144_p6026
#mc20_13TeV.364286.Sherpa_222_NNPDF30NNLO_llvvjj_ss_EW4.deriv.DAOD_PHYS.e6055_s3681_r13145_p6026
mc20_13TeV.364286.Sherpa_222_NNPDF30NNLO_llvvjj_ss_EW4.deriv.DAOD_PHYS.e6055_s3681_r13167_p6026
