mc20_13TeV.521286.MGPy8_ss_WWjj_had_LO.deriv.DAOD_PHYS.e8488_s3797_r13144_p6026
mc20_13TeV.521286.MGPy8_ss_WWjj_had_LO.deriv.DAOD_PHYS.e8488_s3797_r13145_p6026
mc20_13TeV.521286.MGPy8_ss_WWjj_had_LO.deriv.DAOD_PHYS.e8488_s3797_r13167_p6026
mc20_13TeV.521287.MGPy8_os_WWjj_had_LO.deriv.DAOD_PHYS.e8488_s3797_r13145_p6026
mc20_13TeV.521287.MGPy8_os_WWjj_had_LO.deriv.DAOD_PHYS.e8488_s3797_r13144_p6026
mc20_13TeV.521287.MGPy8_os_WWjj_had_LO.deriv.DAOD_PHYS.e8488_s3797_r13167_p6026
mc20_13TeV.521288.MGPy8_ZZjj_had_LO.deriv.DAOD_PHYS.e8488_s3797_r13144_p6026
mc20_13TeV.521288.MGPy8_ZZjj_had_LO.deriv.DAOD_PHYS.e8488_s3797_r13145_p6026
mc20_13TeV.521288.MGPy8_ZZjj_had_LO.deriv.DAOD_PHYS.e8488_s3797_r13167_p6026
mc20_13TeV.521289.MGPy8_WZjj_had_LO.deriv.DAOD_PHYS.e8488_s3797_r13144_p6026
mc20_13TeV.521289.MGPy8_WZjj_had_LO.deriv.DAOD_PHYS.e8488_s3797_r13167_p6026
mc20_13TeV.521289.MGPy8_WZjj_had_LO.deriv.DAOD_PHYS.e8488_s3797_r13145_p6026
