# RS Graviton AF3
mc20_13TeV.522557.MGPy8EG_A14N23LO_RS_G_hh_bbbb_AutoWidth_c10_M300.deriv.DAOD_PHYS.e8577_a907_r14859_p6490
mc20_13TeV.522557.MGPy8EG_A14N23LO_RS_G_hh_bbbb_AutoWidth_c10_M300.deriv.DAOD_PHYS.e8577_a907_r14860_p6490
mc20_13TeV.522557.MGPy8EG_A14N23LO_RS_G_hh_bbbb_AutoWidth_c10_M300.deriv.DAOD_PHYS.e8577_a907_r14861_p6490
mc20_13TeV.522558.MGPy8EG_A14N23LO_RS_G_hh_bbbb_AutoWidth_c10_M400.deriv.DAOD_PHYS.e8577_a907_r14859_p6490
mc20_13TeV.522558.MGPy8EG_A14N23LO_RS_G_hh_bbbb_AutoWidth_c10_M400.deriv.DAOD_PHYS.e8577_a907_r14860_p6490
mc20_13TeV.522558.MGPy8EG_A14N23LO_RS_G_hh_bbbb_AutoWidth_c10_M400.deriv.DAOD_PHYS.e8577_a907_r14861_p6490
mc20_13TeV.522559.MGPy8EG_A14N23LO_RS_G_hh_bbbb_AutoWidth_c10_M500.deriv.DAOD_PHYS.e8577_a907_r14859_p6490
mc20_13TeV.522559.MGPy8EG_A14N23LO_RS_G_hh_bbbb_AutoWidth_c10_M500.deriv.DAOD_PHYS.e8577_a907_r14860_p6490
mc20_13TeV.522559.MGPy8EG_A14N23LO_RS_G_hh_bbbb_AutoWidth_c10_M500.deriv.DAOD_PHYS.e8577_a907_r14861_p6490
mc20_13TeV.522560.MGPy8EG_A14N23LO_RS_G_hh_bbbb_AutoWidth_c10_M600.deriv.DAOD_PHYS.e8577_a907_r14859_p6490
mc20_13TeV.522560.MGPy8EG_A14N23LO_RS_G_hh_bbbb_AutoWidth_c10_M600.deriv.DAOD_PHYS.e8577_a907_r14860_p6490
mc20_13TeV.522560.MGPy8EG_A14N23LO_RS_G_hh_bbbb_AutoWidth_c10_M600.deriv.DAOD_PHYS.e8577_a907_r14861_p6490
mc20_13TeV.522561.MGPy8EG_A14N23LO_RS_G_hh_bbbb_AutoWidth_c10_M700.deriv.DAOD_PHYS.e8577_a907_r14859_p6490
mc20_13TeV.522561.MGPy8EG_A14N23LO_RS_G_hh_bbbb_AutoWidth_c10_M700.deriv.DAOD_PHYS.e8577_a907_r14860_p6490
mc20_13TeV.522561.MGPy8EG_A14N23LO_RS_G_hh_bbbb_AutoWidth_c10_M700.deriv.DAOD_PHYS.e8577_a907_r14861_p6490
mc20_13TeV.522562.MGPy8EG_A14N23LO_RS_G_hh_bbbb_AutoWidth_c10_M800.deriv.DAOD_PHYS.e8577_a907_r14859_p6490
mc20_13TeV.522562.MGPy8EG_A14N23LO_RS_G_hh_bbbb_AutoWidth_c10_M800.deriv.DAOD_PHYS.e8577_a907_r14860_p6490
mc20_13TeV.522562.MGPy8EG_A14N23LO_RS_G_hh_bbbb_AutoWidth_c10_M800.deriv.DAOD_PHYS.e8577_a907_r14861_p6490
mc20_13TeV.522563.MGPy8EG_A14N23LO_RS_G_hh_bbbb_AutoWidth_c10_M900.deriv.DAOD_PHYS.e8577_a907_r14859_p6490
mc20_13TeV.522563.MGPy8EG_A14N23LO_RS_G_hh_bbbb_AutoWidth_c10_M900.deriv.DAOD_PHYS.e8577_a907_r14860_p6490
mc20_13TeV.522563.MGPy8EG_A14N23LO_RS_G_hh_bbbb_AutoWidth_c10_M900.deriv.DAOD_PHYS.e8577_a907_r14861_p6490
mc20_13TeV.522564.MGPy8EG_A14N23LO_RS_G_hh_bbbb_AutoWidth_c10_M1000.deriv.DAOD_PHYS.e8577_a907_r14859_p6490
mc20_13TeV.522564.MGPy8EG_A14N23LO_RS_G_hh_bbbb_AutoWidth_c10_M1000.deriv.DAOD_PHYS.e8577_a907_r14860_p6490
mc20_13TeV.522564.MGPy8EG_A14N23LO_RS_G_hh_bbbb_AutoWidth_c10_M1000.deriv.DAOD_PHYS.e8577_a907_r14861_p6490
mc20_13TeV.545741.MGPy8EG_A14N23LO_RS_G_hh_bbbb_AutoWidth_c10_M1100.deriv.DAOD_PHYS.e8577_a907_r14859_p6490
mc20_13TeV.545741.MGPy8EG_A14N23LO_RS_G_hh_bbbb_AutoWidth_c10_M1100.deriv.DAOD_PHYS.e8577_a907_r14860_p6490
mc20_13TeV.545741.MGPy8EG_A14N23LO_RS_G_hh_bbbb_AutoWidth_c10_M1100.deriv.DAOD_PHYS.e8577_a907_r14861_p6490
mc20_13TeV.545742.MGPy8EG_A14N23LO_RS_G_hh_bbbb_AutoWidth_c10_M1200.deriv.DAOD_PHYS.e8577_a907_r14859_p6490
mc20_13TeV.545742.MGPy8EG_A14N23LO_RS_G_hh_bbbb_AutoWidth_c10_M1200.deriv.DAOD_PHYS.e8577_a907_r14860_p6490
mc20_13TeV.545742.MGPy8EG_A14N23LO_RS_G_hh_bbbb_AutoWidth_c10_M1200.deriv.DAOD_PHYS.e8577_a907_r14861_p6490
mc20_13TeV.545743.MGPy8EG_A14N23LO_RS_G_hh_bbbb_AutoWidth_c10_M1300.deriv.DAOD_PHYS.e8577_a907_r14859_p6490
mc20_13TeV.545743.MGPy8EG_A14N23LO_RS_G_hh_bbbb_AutoWidth_c10_M1300.deriv.DAOD_PHYS.e8577_a907_r14860_p6490
mc20_13TeV.545743.MGPy8EG_A14N23LO_RS_G_hh_bbbb_AutoWidth_c10_M1300.deriv.DAOD_PHYS.e8577_a907_r14861_p6490
mc20_13TeV.545744.MGPy8EG_A14N23LO_RS_G_hh_bbbb_AutoWidth_c10_M1400.deriv.DAOD_PHYS.e8577_a907_r14859_p6490
mc20_13TeV.545744.MGPy8EG_A14N23LO_RS_G_hh_bbbb_AutoWidth_c10_M1400.deriv.DAOD_PHYS.e8577_a907_r14860_p6490
mc20_13TeV.545744.MGPy8EG_A14N23LO_RS_G_hh_bbbb_AutoWidth_c10_M1400.deriv.DAOD_PHYS.e8577_a907_r14861_p6490
mc20_13TeV.545745.MGPy8EG_A14N23LO_RS_G_hh_bbbb_AutoWidth_c10_M1500.deriv.DAOD_PHYS.e8577_a907_r14859_p6490
mc20_13TeV.545745.MGPy8EG_A14N23LO_RS_G_hh_bbbb_AutoWidth_c10_M1500.deriv.DAOD_PHYS.e8577_a907_r14860_p6490
mc20_13TeV.545745.MGPy8EG_A14N23LO_RS_G_hh_bbbb_AutoWidth_c10_M1500.deriv.DAOD_PHYS.e8577_a907_r14861_p6490
mc20_13TeV.545746.MGPy8EG_A14N23LO_RS_G_hh_bbbb_AutoWidth_c10_M1600.deriv.DAOD_PHYS.e8577_a907_r14859_p6490
mc20_13TeV.545746.MGPy8EG_A14N23LO_RS_G_hh_bbbb_AutoWidth_c10_M1600.deriv.DAOD_PHYS.e8577_a907_r14860_p6490
mc20_13TeV.545746.MGPy8EG_A14N23LO_RS_G_hh_bbbb_AutoWidth_c10_M1600.deriv.DAOD_PHYS.e8577_a907_r14861_p6490
mc20_13TeV.545747.MGPy8EG_A14N23LO_RS_G_hh_bbbb_AutoWidth_c10_M1800.deriv.DAOD_PHYS.e8577_a907_r14859_p6490
mc20_13TeV.545747.MGPy8EG_A14N23LO_RS_G_hh_bbbb_AutoWidth_c10_M1800.deriv.DAOD_PHYS.e8577_a907_r14860_p6490
mc20_13TeV.545747.MGPy8EG_A14N23LO_RS_G_hh_bbbb_AutoWidth_c10_M1800.deriv.DAOD_PHYS.e8577_a907_r14861_p6490
mc20_13TeV.545748.MGPy8EG_A14N23LO_RS_G_hh_bbbb_AutoWidth_c10_M2000.deriv.DAOD_PHYS.e8577_a907_r14859_p6490
mc20_13TeV.545748.MGPy8EG_A14N23LO_RS_G_hh_bbbb_AutoWidth_c10_M2000.deriv.DAOD_PHYS.e8577_a907_r14860_p6490
mc20_13TeV.545748.MGPy8EG_A14N23LO_RS_G_hh_bbbb_AutoWidth_c10_M2000.deriv.DAOD_PHYS.e8577_a907_r14861_p6490
mc20_13TeV.545749.MGPy8EG_A14N23LO_RS_G_hh_bbbb_AutoWidth_c10_M2250.deriv.DAOD_PHYS.e8577_a907_r14859_p6490
mc20_13TeV.545749.MGPy8EG_A14N23LO_RS_G_hh_bbbb_AutoWidth_c10_M2250.deriv.DAOD_PHYS.e8577_a907_r14860_p6490
mc20_13TeV.545749.MGPy8EG_A14N23LO_RS_G_hh_bbbb_AutoWidth_c10_M2250.deriv.DAOD_PHYS.e8577_a907_r14861_p6490
mc20_13TeV.545750.MGPy8EG_A14N23LO_RS_G_hh_bbbb_AutoWidth_c10_M2500.deriv.DAOD_PHYS.e8577_a907_r14859_p6490
mc20_13TeV.545750.MGPy8EG_A14N23LO_RS_G_hh_bbbb_AutoWidth_c10_M2500.deriv.DAOD_PHYS.e8577_a907_r14860_p6490
mc20_13TeV.545750.MGPy8EG_A14N23LO_RS_G_hh_bbbb_AutoWidth_c10_M2500.deriv.DAOD_PHYS.e8577_a907_r14861_p6490
mc20_13TeV.545751.MGPy8EG_A14N23LO_RS_G_hh_bbbb_AutoWidth_c10_M2750.deriv.DAOD_PHYS.e8577_a907_r14859_p6490
mc20_13TeV.545751.MGPy8EG_A14N23LO_RS_G_hh_bbbb_AutoWidth_c10_M2750.deriv.DAOD_PHYS.e8577_a907_r14860_p6490
mc20_13TeV.545751.MGPy8EG_A14N23LO_RS_G_hh_bbbb_AutoWidth_c10_M2750.deriv.DAOD_PHYS.e8577_a907_r14861_p6490
mc20_13TeV.545752.MGPy8EG_A14N23LO_RS_G_hh_bbbb_AutoWidth_c10_M3000.deriv.DAOD_PHYS.e8577_a907_r14859_p6490
mc20_13TeV.545752.MGPy8EG_A14N23LO_RS_G_hh_bbbb_AutoWidth_c10_M3000.deriv.DAOD_PHYS.e8577_a907_r14860_p6490
mc20_13TeV.545752.MGPy8EG_A14N23LO_RS_G_hh_bbbb_AutoWidth_c10_M3000.deriv.DAOD_PHYS.e8577_a907_r14861_p6490
mc20_13TeV.545753.MGPy8EG_A14N23LO_RS_G_hh_bbbb_AutoWidth_c10_M3500.deriv.DAOD_PHYS.e8577_a907_r14859_p6490
mc20_13TeV.545753.MGPy8EG_A14N23LO_RS_G_hh_bbbb_AutoWidth_c10_M3500.deriv.DAOD_PHYS.e8577_a907_r14860_p6490
mc20_13TeV.545753.MGPy8EG_A14N23LO_RS_G_hh_bbbb_AutoWidth_c10_M3500.deriv.DAOD_PHYS.e8577_a907_r14861_p6490
mc20_13TeV.545754.MGPy8EG_A14N23LO_RS_G_hh_bbbb_AutoWidth_c10_M4000.deriv.DAOD_PHYS.e8577_a907_r14859_p6490
mc20_13TeV.545754.MGPy8EG_A14N23LO_RS_G_hh_bbbb_AutoWidth_c10_M4000.deriv.DAOD_PHYS.e8577_a907_r14860_p6490
mc20_13TeV.545754.MGPy8EG_A14N23LO_RS_G_hh_bbbb_AutoWidth_c10_M4000.deriv.DAOD_PHYS.e8577_a907_r14861_p6490
mc20_13TeV.545755.MGPy8EG_A14N23LO_RS_G_hh_bbbb_AutoWidth_c10_M4500.deriv.DAOD_PHYS.e8577_a907_r14859_p6490
mc20_13TeV.545755.MGPy8EG_A14N23LO_RS_G_hh_bbbb_AutoWidth_c10_M4500.deriv.DAOD_PHYS.e8577_a907_r14860_p6490
mc20_13TeV.545755.MGPy8EG_A14N23LO_RS_G_hh_bbbb_AutoWidth_c10_M4500.deriv.DAOD_PHYS.e8577_a907_r14861_p6490
mc20_13TeV.545756.MGPy8EG_A14N23LO_RS_G_hh_bbbb_AutoWidth_c10_M5000.deriv.DAOD_PHYS.e8577_a907_r14859_p6490
mc20_13TeV.545756.MGPy8EG_A14N23LO_RS_G_hh_bbbb_AutoWidth_c10_M5000.deriv.DAOD_PHYS.e8577_a907_r14860_p6490
mc20_13TeV.545756.MGPy8EG_A14N23LO_RS_G_hh_bbbb_AutoWidth_c10_M5000.deriv.DAOD_PHYS.e8577_a907_r14861_p6490
mc20_13TeV.545757.MGPy8EG_A14N23LO_RS_G_hh_bbbb_AutoWidth_c10_M5500.deriv.DAOD_PHYS.e8577_a907_r14859_p6490
mc20_13TeV.545757.MGPy8EG_A14N23LO_RS_G_hh_bbbb_AutoWidth_c10_M5500.deriv.DAOD_PHYS.e8577_a907_r14860_p6490
mc20_13TeV.545757.MGPy8EG_A14N23LO_RS_G_hh_bbbb_AutoWidth_c10_M5500.deriv.DAOD_PHYS.e8577_a907_r14861_p6490
mc20_13TeV.545758.MGPy8EG_A14N23LO_RS_G_hh_bbbb_AutoWidth_c10_M6000.deriv.DAOD_PHYS.e8577_a907_r14859_p6490
mc20_13TeV.545758.MGPy8EG_A14N23LO_RS_G_hh_bbbb_AutoWidth_c10_M6000.deriv.DAOD_PHYS.e8577_a907_r14860_p6490
mc20_13TeV.545758.MGPy8EG_A14N23LO_RS_G_hh_bbbb_AutoWidth_c10_M6000.deriv.DAOD_PHYS.e8577_a907_r14861_p6490
# RS Graviton FullSim
mc20_13TeV.522564.MGPy8EG_A14N23LO_RS_G_hh_bbbb_AutoWidth_c10_M1000.deriv.DAOD_PHYS.e8577_s3797_r13144_p6490
mc20_13TeV.522564.MGPy8EG_A14N23LO_RS_G_hh_bbbb_AutoWidth_c10_M1000.deriv.DAOD_PHYS.e8577_s3797_r13145_p6490
mc20_13TeV.522564.MGPy8EG_A14N23LO_RS_G_hh_bbbb_AutoWidth_c10_M1000.deriv.DAOD_PHYS.e8577_s3797_r13167_p6490
mc20_13TeV.545752.MGPy8EG_A14N23LO_RS_G_hh_bbbb_AutoWidth_c10_M3000.deriv.DAOD_PHYS.e8577_s3797_r13144_p6490
mc20_13TeV.545752.MGPy8EG_A14N23LO_RS_G_hh_bbbb_AutoWidth_c10_M3000.deriv.DAOD_PHYS.e8577_s3797_r13145_p6490
mc20_13TeV.545752.MGPy8EG_A14N23LO_RS_G_hh_bbbb_AutoWidth_c10_M3000.deriv.DAOD_PHYS.e8577_s3797_r13167_p6490
