mc20_13TeV.346343.PhPy8EG_A14NNPDF23_NNPDF30ME_ttH125_allhad.deriv.DAOD_PHYS.e7148_s3681_r13144_p6026
mc20_13TeV.346343.PhPy8EG_A14NNPDF23_NNPDF30ME_ttH125_allhad.deriv.DAOD_PHYS.e7148_s3681_r13145_p6026
mc20_13TeV.346343.PhPy8EG_A14NNPDF23_NNPDF30ME_ttH125_allhad.deriv.DAOD_PHYS.e7148_s3681_r13167_p6026

mc20_13TeV.346344.PhPy8EG_A14NNPDF23_NNPDF30ME_ttH125_semilep.deriv.DAOD_PHYS.e7148_s3681_r13144_p6026
mc20_13TeV.346344.PhPy8EG_A14NNPDF23_NNPDF30ME_ttH125_semilep.deriv.DAOD_PHYS.e7148_s3681_r13145_p6026
mc20_13TeV.346344.PhPy8EG_A14NNPDF23_NNPDF30ME_ttH125_semilep.deriv.DAOD_PHYS.e7148_s3681_r13167_p6026

mc20_13TeV.346345.PhPy8EG_A14NNPDF23_NNPDF30ME_ttH125_dilep.deriv.DAOD_PHYS.e7148_s3681_r13144_p6026
mc20_13TeV.346345.PhPy8EG_A14NNPDF23_NNPDF30ME_ttH125_dilep.deriv.DAOD_PHYS.e7148_s3681_r13145_p6026
mc20_13TeV.346345.PhPy8EG_A14NNPDF23_NNPDF30ME_ttH125_dilep.deriv.DAOD_PHYS.e7148_s3681_r13167_p6026

mc20_13TeV.345055.PowhegPythia8EvtGen_NNPDF3_AZNLO_ZH125J_MINLO_llbb_VpT.deriv.DAOD_PHYS.e5706_s3681_r13144_p6026
mc20_13TeV.345055.PowhegPythia8EvtGen_NNPDF3_AZNLO_ZH125J_MINLO_llbb_VpT.deriv.DAOD_PHYS.e5706_s3681_r13145_p6026
mc20_13TeV.345055.PowhegPythia8EvtGen_NNPDF3_AZNLO_ZH125J_MINLO_llbb_VpT.deriv.DAOD_PHYS.e5706_s3681_r13167_p6026

mc20_13TeV.345057.PowhegPythia8EvtGen_NNPDF3_AZNLO_ggZH125_llbb.deriv.DAOD_PHYS.e5706_s3681_r13144_p6026
mc20_13TeV.345057.PowhegPythia8EvtGen_NNPDF3_AZNLO_ggZH125_llbb.deriv.DAOD_PHYS.e5706_s3681_r13145_p6026
mc20_13TeV.345057.PowhegPythia8EvtGen_NNPDF3_AZNLO_ggZH125_llbb.deriv.DAOD_PHYS.e5706_s3681_r13167_p6026

mc20_13TeV.345217.PowhegPy8EG_NNPDF30_AZNLO_ZH125J_Zinc_MINLO_tautau.deriv.DAOD_PHYS.e5808_s3681_r13144_p6026
mc20_13TeV.345217.PowhegPy8EG_NNPDF30_AZNLO_ZH125J_Zinc_MINLO_tautau.deriv.DAOD_PHYS.e5808_s3681_r13145_p6026
mc20_13TeV.345217.PowhegPy8EG_NNPDF30_AZNLO_ZH125J_Zinc_MINLO_tautau.deriv.DAOD_PHYS.e5808_s3681_r13167_p6026

mc20_13TeV.345053.PowhegPythia8EvtGen_NNPDF3_AZNLO_WmH125J_MINLO_lvbb_VpT.deriv.DAOD_PHYS.e5706_s3681_r13144_p6026
mc20_13TeV.345053.PowhegPythia8EvtGen_NNPDF3_AZNLO_WmH125J_MINLO_lvbb_VpT.deriv.DAOD_PHYS.e5706_s3681_r13145_p6026
mc20_13TeV.345053.PowhegPythia8EvtGen_NNPDF3_AZNLO_WmH125J_MINLO_lvbb_VpT.deriv.DAOD_PHYS.e5706_s3681_r13167_p6026

mc20_13TeV.345054.PowhegPythia8EvtGen_NNPDF3_AZNLO_WpH125J_MINLO_lvbb_VpT.deriv.DAOD_PHYS.e5706_s3681_r13144_p6026
mc20_13TeV.345054.PowhegPythia8EvtGen_NNPDF3_AZNLO_WpH125J_MINLO_lvbb_VpT.deriv.DAOD_PHYS.e5706_s3681_r13145_p6026
mc20_13TeV.345054.PowhegPythia8EvtGen_NNPDF3_AZNLO_WpH125J_MINLO_lvbb_VpT.deriv.DAOD_PHYS.e5706_s3681_r13167_p6026

mc20_13TeV.345211.PowhegPy8EG_NNPDF30_AZNLO_WmH125J_Winc_MINLO_tautau.deriv.DAOD_PHYS.e5808_s3681_r13144_p6026
mc20_13TeV.345211.PowhegPy8EG_NNPDF30_AZNLO_WmH125J_Winc_MINLO_tautau.deriv.DAOD_PHYS.e5808_s3681_r13145_p6026


mc20_13TeV.345212.PowhegPy8EG_NNPDF30_AZNLO_WpH125J_Winc_MINLO_tautau.deriv.DAOD_PHYS.e5808_s3681_r13144_p6026
mc20_13TeV.345212.PowhegPy8EG_NNPDF30_AZNLO_WpH125J_Winc_MINLO_tautau.deriv.DAOD_PHYS.e5808_s3681_r13145_p6026


mc20_13TeV.345120.PowhegPy8EG_NNLOPS_nnlo_30_ggH125_tautaul13l7.deriv.DAOD_PHYS.e5814_s3681_r13144_p6026
mc20_13TeV.345120.PowhegPy8EG_NNLOPS_nnlo_30_ggH125_tautaul13l7.deriv.DAOD_PHYS.e5814_s3681_r13145_p6026
mc20_13TeV.345120.PowhegPy8EG_NNLOPS_nnlo_30_ggH125_tautaul13l7.deriv.DAOD_PHYS.e5814_s3681_r13167_p6026

mc20_13TeV.345121.PowhegPy8EG_NNLOPS_nnlo_30_ggH125_tautaulm15hp20.deriv.DAOD_PHYS.e5814_s3681_r13144_p6026
mc20_13TeV.345121.PowhegPy8EG_NNLOPS_nnlo_30_ggH125_tautaulm15hp20.deriv.DAOD_PHYS.e5814_s3681_r13145_p6026
mc20_13TeV.345121.PowhegPy8EG_NNLOPS_nnlo_30_ggH125_tautaulm15hp20.deriv.DAOD_PHYS.e5814_s3681_r13167_p6026

mc20_13TeV.345122.PowhegPy8EG_NNLOPS_nnlo_30_ggH125_tautaulp15hm20.deriv.DAOD_PHYS.e5814_s3681_r13144_p6026
mc20_13TeV.345122.PowhegPy8EG_NNLOPS_nnlo_30_ggH125_tautaulp15hm20.deriv.DAOD_PHYS.e5814_s3681_r13145_p6026
mc20_13TeV.345122.PowhegPy8EG_NNLOPS_nnlo_30_ggH125_tautaulp15hm20.deriv.DAOD_PHYS.e5814_s3681_r13167_p6026

mc20_13TeV.345123.PowhegPy8EG_NNLOPS_nnlo_30_ggH125_tautauh30h20.deriv.DAOD_PHYS.e5814_s3681_r13144_p6026
mc20_13TeV.345123.PowhegPy8EG_NNLOPS_nnlo_30_ggH125_tautauh30h20.deriv.DAOD_PHYS.e5814_s3681_r13145_p6026
mc20_13TeV.345123.PowhegPy8EG_NNLOPS_nnlo_30_ggH125_tautauh30h20.deriv.DAOD_PHYS.e5814_s3681_r13167_p6026

mc20_13TeV.346190.PowhegPy8EG_NNPDF30_AZNLOCTEQ6L1_VBFH125_tautaul13l7.deriv.DAOD_PHYS.e7259_s3681_r13144_p6026
mc20_13TeV.346190.PowhegPy8EG_NNPDF30_AZNLOCTEQ6L1_VBFH125_tautaul13l7.deriv.DAOD_PHYS.e7259_s3681_r13145_p6026
mc20_13TeV.346190.PowhegPy8EG_NNPDF30_AZNLOCTEQ6L1_VBFH125_tautaul13l7.deriv.DAOD_PHYS.e7259_s3681_r13167_p6026

mc20_13TeV.346191.PowhegPy8EG_NNPDF30_AZNLOCTEQ6L1_VBFH125_tautaulm15hp20.deriv.DAOD_PHYS.e7259_s3681_r13144_p6026
mc20_13TeV.346191.PowhegPy8EG_NNPDF30_AZNLOCTEQ6L1_VBFH125_tautaulm15hp20.deriv.DAOD_PHYS.e7259_s3681_r13145_p6026
mc20_13TeV.346191.PowhegPy8EG_NNPDF30_AZNLOCTEQ6L1_VBFH125_tautaulm15hp20.deriv.DAOD_PHYS.e7259_s3681_r13167_p6026

mc20_13TeV.346192.PowhegPy8EG_NNPDF30_AZNLOCTEQ6L1_VBFH125_tautaulp15hm20.deriv.DAOD_PHYS.e7259_s3681_r13144_p6026
mc20_13TeV.346192.PowhegPy8EG_NNPDF30_AZNLOCTEQ6L1_VBFH125_tautaulp15hm20.deriv.DAOD_PHYS.e7259_s3681_r13145_p6026
mc20_13TeV.346192.PowhegPy8EG_NNPDF30_AZNLOCTEQ6L1_VBFH125_tautaulp15hm20.deriv.DAOD_PHYS.e7259_s3681_r13167_p6026

mc20_13TeV.346193.PowhegPy8EG_NNPDF30_AZNLOCTEQ6L1_VBFH125_tautauh30h20.deriv.DAOD_PHYS.e7259_s3681_r13144_p6026
mc20_13TeV.346193.PowhegPy8EG_NNPDF30_AZNLOCTEQ6L1_VBFH125_tautauh30h20.deriv.DAOD_PHYS.e7259_s3681_r13145_p6026
mc20_13TeV.346193.PowhegPy8EG_NNPDF30_AZNLOCTEQ6L1_VBFH125_tautauh30h20.deriv.DAOD_PHYS.e7259_s3681_r13167_p6026
